{
  "iisSettings": {
    "windowsAuthentication": false,
    "anonymousAuthentication": true,
    "iisExpress": {
      "applicationUrl": "http://localhost:9020",
      "sslPort": 0
    }
  },
  "profiles": {
    "IIS Express": {
      "commandName": "IISExpress",
      "launchBrowser": true,
      "environmentVariables": {
        "ASPNETCORE_ENVIRONMENT": "Development"
      }
    },
    "IndyFurConCore": {
        "commandName": "Project",
        "launchBrowser": true,
        "launchUrl": "http://localhost:5000",
        "environmentVariables": {
            "ASPNETCORE_ENVIRONMENT": "Development"
        }
    }
  }
}